index
…
Simple and intuitive

library(fable)
gas_tsbl |> 
  model(ets = ETS(log(Gas) ~ error("A") + trend("A") + season("A"))) |> 
  forecast(h = "6 years")

# A fable: 72 x 4 [1M]
# Key:     .model [1]
   .model    Month              Gas  .mean
   <chr>     <mth>           <dist>  <dbl>
 1 ets    1995 Sep t(N(11, 0.0025)) 54469.
 2 ets    1995 Oct t(N(11, 0.0036)) 51286.
 3 ets    1995 Nov t(N(11, 0.0049)) 47180.
 4 ets    1995 Dec t(N(11, 0.0063)) 43615.
 5 ets    1996 Jan t(N(11, 0.0078)) 41207.
 6 ets    1996 Feb t(N(11, 0.0093)) 41951.
 7 ets    1996 Mar  t(N(11, 0.011)) 46328.
 8 ets    1996 Apr  t(N(11, 0.013)) 47677.
 9 ets    1996 May  t(N(11, 0.015)) 56607.
10 ets    1996 Jun  t(N(11, 0.017)) 61160.
# ℹ 62 more rows

Simple and intuitive

library(fable)
gas_tsbl |> 
  model(ets = ETS(log(Gas) ~ error("A") + trend("A") + season("A"))) |> 
  forecast(h = "6 years") |> 
  dplyr::mutate(mean(Gas), median(Gas))

# A fable: 72 x 6 [1M]
# Key:     .model [1]
   .model    Month              Gas  .mean `mean(Gas)` `median(Gas)`
   <chr>     <mth>           <dist>  <dbl>       <dbl>         <dbl>
 1 ets    1995 Sep t(N(11, 0.0025)) 54469.      54469.        54402.
 2 ets    1995 Oct t(N(11, 0.0036)) 51286.      51286.        51192.
 3 ets    1995 Nov t(N(11, 0.0049)) 47180.      47180.        47064.
 4 ets    1995 Dec t(N(11, 0.0063)) 43615.      43615.        43478.
 5 ets    1996 Jan t(N(11, 0.0078)) 41207.      41207.        41048.
 6 ets    1996 Feb t(N(11, 0.0093)) 41951.      41951.        41756.
 7 ets    1996 Mar  t(N(11, 0.011)) 46328.      46328.        46075.
 8 ets    1996 Apr  t(N(11, 0.013)) 47677.      47677.        47375.
 9 ets    1996 May  t(N(11, 0.015)) 56607.      56607.        56196.
10 ets    1996 Jun  t(N(11, 0.017)) 61160.      61160.        60656.
# ℹ 62 more rows
…
Flexible

library(fable)
gas_tsbl |> 
  model(ets = ETS(log(Gas + 1) ~ error("A") + trend("A") + season("A"))) |> 
  forecast(h = "6 years")

# A fable: 72 x 4 [1M]
# Key:     .model [1]
   .model    Month              Gas  .mean
   <chr>     <mth>           <dist>  <dbl>
 1 ets    1995 Sep t(N(11, 0.0025)) 54474.
 2 ets    1995 Oct t(N(11, 0.0036)) 51260.
 3 ets    1995 Nov t(N(11, 0.0049)) 47180.
 4 ets    1995 Dec t(N(11, 0.0063)) 43633.
 5 ets    1996 Jan t(N(11, 0.0077)) 41226.
 6 ets    1996 Feb t(N(11, 0.0093)) 41997.
 7 ets    1996 Mar  t(N(11, 0.011)) 46377.
 8 ets    1996 Apr  t(N(11, 0.013)) 47710.
 9 ets    1996 May  t(N(11, 0.014)) 56632.
10 ets    1996 Jun  t(N(11, 0.016)) 61191.
# ℹ 62 more rows
…
Consistent

library(fable)
gas_tsbl |> 
  model(
    ets = ETS(log(Gas + 1) ~ error("A") + trend("A") + season("A")),
    snaive = SNAIVE(Gas)
  ) |> 
  forecast(h = "6 years")

# A fable: 144 x 4 [1M]
# Key:     .model [2]
   .model    Month              Gas  .mean
   <chr>     <mth>           <dist>  <dbl>
 1 ets    1995 Sep t(N(11, 0.0025)) 54474.
 2 ets    1995 Oct t(N(11, 0.0036)) 51260.
 3 ets    1995 Nov t(N(11, 0.0049)) 47180.
 4 ets    1995 Dec t(N(11, 0.0063)) 43633.
 5 ets    1996 Jan t(N(11, 0.0077)) 41226.
 6 ets    1996 Feb t(N(11, 0.0093)) 41997.
 7 ets    1996 Mar  t(N(11, 0.011)) 46377.
 8 ets    1996 Apr  t(N(11, 0.013)) 47710.
 9 ets    1996 May  t(N(11, 0.014)) 56632.
10 ets    1996 Jun  t(N(11, 0.016)) 61191.
# ℹ 134 more rows
…
